<?xml version="1.0" standalone="no"?>
<!DOCTYPE svg PUBLIC "-//W3C//DTD SVG 1.1//EN" "http://www.w3.org/Graphics/SVG/1.1/DTD/svg11.dtd">
<svg xmlns="http://www.w3.org/2000/svg">
<metadata>Copyright (C) 2017 by original authors @ fontello.com</metadata>
<defs>
<font id="fontello" horiz-adv-x="1000" >
<font-face font-family="fontello" font-weight="400" font-stretch="normal" units-per-em="1000" ascent="850" descent="-150" />
<missing-glyph horiz-adv-x="1000" />
<glyph glyph-name="lock" unicode="&#xe800;" d="M179 421h285v108q0 59-42 101t-101 41-101-41-41-101v-108z m464-53v-322q0-22-16-37t-38-16h-535q-23 0-38 16t-16 37v322q0 22 16 38t38 15h17v108q0 102 74 176t176 74 177-74 73-176v-108h18q23 0 38-15t16-38z" horiz-adv-x="642.9" />

<glyph glyph-name="clock" unicode="&#xe801;" d="M500 546v-250q0-7-5-12t-13-5h-178q-8 0-13 5t-5 12v36q0 8 5 13t13 5h125v196q0 8 5 13t12 5h36q8 0 13-5t5-13z m232-196q0 83-41 152t-110 111-152 41-153-41-110-111-41-152 41-152 110-111 153-41 152 41 110 111 41 152z m125 0q0-117-57-215t-156-156-215-58-216 58-155 156-58 215 58 215 155 156 216 58 215-58 156-156 57-215z" horiz-adv-x="857.1" />

<glyph glyph-name="off" unicode="&#xe802;" d="M857 350q0-87-34-166t-91-137-137-92-166-34-167 34-136 92-92 137-34 166q0 102 45 191t126 151q24 18 54 14t46-28q18-23 14-53t-28-47q-54-41-84-101t-30-127q0-58 23-111t61-91 91-61 111-23 110 23 92 61 61 91 22 111q0 68-30 127t-84 101q-23 18-28 47t14 53q17 24 47 28t53-14q81-61 126-151t45-191z m-357 429v-358q0-29-21-50t-50-21-51 21-21 50v358q0 29 21 50t51 21 50-21 21-50z" horiz-adv-x="857.1" />

<glyph glyph-name="location" unicode="&#xe803;" d="M0 473q0 156 110 267t267 110 267-110 110-267q0-123-53-193l-324-430-324 430q-53 70-53 193z m219 0q0-66 46-112t112-46 112 46 46 112-46 112-112 46-112-46-46-112z" horiz-adv-x="754" />

<glyph glyph-name="info-circled" unicode="&#xe804;" d="M571 82v89q0 8-5 13t-12 5h-54v286q0 8-5 13t-13 5h-178q-8 0-13-5t-5-13v-89q0-8 5-13t13-5h53v-179h-53q-8 0-13-5t-5-13v-89q0-8 5-13t13-5h250q7 0 12 5t5 13z m-71 500v89q0 8-5 13t-13 5h-107q-8 0-13-5t-5-13v-89q0-8 5-13t13-5h107q8 0 13 5t5 13z m357-232q0-117-57-215t-156-156-215-58-216 58-155 156-58 215 58 215 155 156 216 58 215-58 156-156 57-215z" horiz-adv-x="857.1" />

<glyph glyph-name="stop" unicode="&#xe805;" d="M857 743v-786q0-14-10-25t-26-11h-785q-15 0-25 11t-11 25v786q0 14 11 25t25 11h785q15 0 26-11t10-25z" horiz-adv-x="857.1" />

<glyph glyph-name="up-circled" unicode="&#xf0aa;" d="M717 351q0 15-10 25l-202 202-51 51q-10 10-25 10t-25-10l-51-51-202-202q-10-10-10-25t10-26l51-50q10-10 25-10t25 10l105 105v-280q0-14 11-25t25-11h71q15 0 25 11t11 25v280l106-105q10-11 25-11t25 11l51 50q10 11 10 26z m140-1q0-117-57-215t-156-156-215-58-216 58-155 156-58 215 58 215 155 156 216 58 215-58 156-156 57-215z" horiz-adv-x="857.1" />

<glyph glyph-name="down-circled" unicode="&#xf0ab;" d="M717 349q0 16-10 26l-51 50q-10 10-25 10t-25-10l-106-105v280q0 15-11 25t-25 11h-71q-15 0-25-11t-11-25v-280l-105 105q-11 11-25 11t-25-11l-51-50q-10-10-10-26t10-25l202-202 51-50q10-10 25-10t25 10l51 50 202 202q10 10 10 25z m140 1q0-117-57-215t-156-156-215-58-216 58-155 156-58 215 58 215 155 156 216 58 215-58 156-156 57-215z" horiz-adv-x="857.1" />

<glyph glyph-name="lightbulb" unicode="&#xf0eb;" d="M411 529q0-8-6-13t-12-5-13 5-5 13q0 25-30 39t-59 14q-7 0-13 5t-5 13 5 13 13 5q28 0 55-9t49-30 21-50z m89 0q0 40-19 74t-50 57-69 35-76 12-76-12-69-35-50-57-20-74q0-57 38-101 6-6 17-18t17-19q72-85 79-166h127q8 81 79 166 6 6 17 19t17 18q38 44 38 101z m71 0q0-87-57-150-25-27-42-48t-33-54-19-60q26-15 26-46 0-20-13-35 13-15 13-36 0-29-25-45 8-13 8-26 0-26-18-40t-43-14q-11-25-34-39t-48-15-49 15-33 39q-26 0-44 14t-17 40q0 13 7 26-25 16-25 45 0 21 14 36-14 15-14 35 0 31 26 46-2 28-19 60t-33 54-41 48q-58 63-58 150 0 55 25 103t65 79 92 49 104 19 104-19 91-49 66-79 24-103z" horiz-adv-x="571.4" />

<glyph glyph-name="address-book-o" unicode="&#xf2ba;" d="M574 491q0-60-43-102t-102-43-103 43-42 102q0 60 42 102t103 43 102-43 43-102z m-27-123q26 0 46-10t33-26 22-37 14-46 6-46 2-44q0-37-22-66t-59-29h-321q-37 0-59 29t-22 66q0 27 3 52t10 55 20 51 35 36 53 15h2q4-2 18-11t20-12 18-9 21-9 20-5 22-3 22 3 19 5 21 9 18 9 20 12 18 11z m382 143q0-7-6-13t-12-5h-54v-72h54q7 0 12-5t6-12v-108q0-7-6-12t-12-5h-54v-72h54q7 0 12-5t6-13v-107q0-7-6-12t-12-6h-54v-125q0-37-26-63t-63-26h-679q-36 0-63 26t-26 63v822q0 37 26 63t63 26h679q37 0 63-26t26-63v-125h54q7 0 12-6t6-12v-107z m-143-572v822q0 7-6 12t-12 6h-679q-7 0-12-6t-6-12v-822q0-7 6-12t12-6h679q7 0 12 6t6 12z" horiz-adv-x="928.6" />
</font>
</defs>
</svg>